bai3/dump.vcd
$date
	Sun Apr 30 18:22:55 2023
$end
$version
	Icarus Verilog
$end
$timescale
	1ns
$end
$scope module spi_slave_tb $end
$var wire 1 ! sclk_s $end
$var wire 1 " read_en $end
$var wire 1 # mosi $end
$var wire 1 $ dout_sig $end
$var wire 32 % data_miso [31:0] $end
$var wire 32 & data [31:0] $end
$var wire 1 ' cs $end
$var wire 7 ( counter [6:0] $end
$var wire 7 ) count_s [6:0] $end
$var wire 8 * cmd [7:0] $end
$var wire 24 + address [23:0] $end
$var reg 64 , data_m [63:0] $end
$var reg 1 - reset $end
$var reg 1 . sclk_m $end
$scope module master $end
$var wire 7 / counter [6:0] $end
$var wire 64 0 data_m [63:0] $end
$var wire 1 - reset $end
$var wire 1 . sclk_m $end
$var wire 1 # mosi $end
$var wire 1 $ miso $end
$var wire 1 ' cs $end
$var reg 64 1 MOSI [63:0] $end
$var reg 7 2 count [6:0] $end
$var reg 1 ' cs_l $end
$var reg 1 3 data_mosi $end
$var reg 3 4 state [2:0] $end
$upscope $end
$scope module spi_slave_inst $end
$var wire 7 5 count_s [6:0] $end
$var wire 1 ' cs $end
$var wire 1 # din $end
$var wire 1 . sclk_m $end
$var wire 1 ! sclk_s $end
$var reg 24 6 address [23:0] $end
$var reg 8 7 cmd [7:0] $end
$var reg 7 8 cnt [6:0] $end
$var reg 32 9 data [31:0] $end
$var reg 32 : data_miso [31:0] $end
$var reg 32 ; data_r [31:0] $end
$var reg 1 $ dout $end
$var reg 1 " read_en $end
$var reg 3 < state [2:0] $end
$upscope $end
$upscope $end
$enddefinitions $end
$comment Show the parameter values. $end
$dumpall
$end
#0
$dumpvars
bx <
b10001000100010001000100010001000 ;
b0 :
b0 9
b0 8
b0 7
b0 6
b0 5
bx 4
03
b0 2
bx 1
bx 0
b0 /
0.
1-
bx ,
b0 +
b0 *
b0 )
b0 (
1'
b0 &
b0 %
x$
x#
0"
1!
$end
#5
0#
b0 1
1.
#10
0.
0-
#15
b0 4
1.
#20
0.
b101010100010010001101000101011011100010001101000101011001111000 ,
b101010100010010001101000101011011100010001101000101011001111000 0
#25
b1 4
1.
#30
0.
#35
b10 4
b1 (
b1 /
b1 2
0'
1.
#40
0!
0.
#45
b1 4
b0 <
1!
1.
#50
0!
0.
#55
b10 4
b10 (
b10 /
b10 2
13
b1 <
1!
1.
#60
0!
0.
#65
1#
b1 1
b1 4
b1 )
b1 5
b1 8
b10 <
1!
1.
#70
0!
0.
#75
b10 4
b11 (
b11 /
b11 2
03
b1 <
1!
1.
#80
0!
0.
#85
0#
b0 1
b1 4
b10 )
b10 5
b10 8
b10 <
b1000000 *
b1000000 7
1!
1.
#90
0!
0.
#95
b10 4
b100 (
b100 /
b100 2
13
b1 <
1!
1.
#100
0!
0.
#105
1#
b1 1
b1 4
b11 )
b11 5
b11 8
b10 <
1!
1.
#110
0!
0.
#115
b10 4
b101 (
b101 /
b101 2
03
b1 <
1!
1.
#120
0!
0.
#125
0#
b0 1
b1 4
b100 )
b100 5
b100 8
b10 <
b1010000 *
b1010000 7
1!
1.
#130
0!
0.
#135
b10 4
b110 (
b110 /
b110 2
13
b1 <
1!
1.
#140
0!
0.
#145
1#
b1 1
b1 4
b101 )
b101 5
b101 8
b10 <
1!
1.
#150
0!
0.
#155
b10 4
b111 (
b111 /
b111 2
03
b1 <
1!
1.
#160
0!
0.
#165
0#
b0 1
b1 4
b110 )
b110 5
b110 8
b10 <
b1010100 *
b1010100 7
1!
1.
#170
0!
0.
#175
b10 4
b1000 (
b1000 /
b1000 2
13
b1 <
1!
1.
#180
0!
0.
#185
1#
b1 1
b1 4
b111 )
b111 5
b111 8
b10 <
1!
1.
#190
0!
0.
#195
b10 4
b1001 (
b1001 /
b1001 2
03
b1 <
1!
1.
#200
0!
0.
#205
0#
b0 1
b1 4
b1000 )
b1000 5
b1000 8
b10 <
b1010101 *
b1010101 7
1!
1.
#210
0!
0.
#215
b10 4
b1010 (
b1010 /
b1010 2
b1 <
1!
1.
#220
0!
0.
#225
b1 4
b1001 )
b1001 5
b1001 8
b10 <
1!
1.
#230
0!
0.
#235
b10 4
b1011 (
b1011 /
b1011 2
b1 <
1!
1.
#240
0!
0.
#245
b1 4
b1010 )
b1010 5
b1010 8
b10 <
1!
1.
#250
0!
0.
#255
b10 4
b1100 (
b1100 /
b1100 2
13
b1 <
1!
1.
#260
0!
0.
#265
1#
b1 1
b1 4
b1011 )
b1011 5
b1011 8
b10 <
1!
1.
#270
0!
0.
#275
b10 4
b1101 (
b1101 /
b1101 2
03
b1 <
1!
1.
#280
0!
0.
#285
0#
b0 1
b1 4
b1100 )
b1100 5
b1100 8
b10 <
b100000000000000000000 +
b100000000000000000000 6
1!
1.
#290
0!
0.
#295
b10 4
b1110 (
b1110 /
b1110 2
b1 <
1!
1.
#300
0!
0.
#305
b1 4
b1101 )
b1101 5
b1101 8
b10 <
1!
1.
#310
0!
0.
#315
b10 4
b1111 (
b1111 /
b1111 2
13
b1 <
1!
1.
#320
0!
0.
#325
1#
b1 1
b1 4
b1110 )
b1110 5
b1110 8
b10 <
1!
1.
#330
0!
0.
#335
b10 4
b10000 (
b10000 /
b10000 2
03
b1 <
1!
1.
#340
0!
0.
#345
0#
b0 1
b1 4
b1111 )
b1111 5
b1111 8
b10 <
b100100000000000000000 +
b100100000000000000000 6
1!
1.
#350
0!
0.
#355
b10 4
b10001 (
b10001 /
b10001 2
b1 <
1!
1.
#360
0!
0.
#365
b1 4
b10000 )
b10000 5
b10000 8
b10 <
1!
1.
#370
0!
0.
#375
b10 4
b10010 (
b10010 /
b10010 2
b1 <
1!
1.
#380
0!
0.
#385
b1 4
b10001 )
b10001 5
b10001 8
b10 <
1!
1.
#390
0!
0.
#395
b10 4
b10011 (
b10011 /
b10011 2
13
b1 <
1!
1.
#400
0!
0.
#405
1#
b1 1
b1 4
b10010 )
b10010 5
b10010 8
b10 <
1!
1.
#410
0!
0.
#415
b10 4
b10100 (
b10100 /
b10100 2
b1 <
1!
1.
#420
0!
0.
#425
b1 4
b10011 )
b10011 5
b10011 8
b10 <
b100100010000000000000 +
b100100010000000000000 6
1!
1.
#430
0!
0.
#435
b10 4
b10101 (
b10101 /
b10101 2
03
b1 <
1!
1.
#440
0!
0.
#445
0#
b0 1
b1 4
b10100 )
b10100 5
b10100 8
b10 <
b100100011000000000000 +
b100100011000000000000 6
1!
1.
#450
0!
0.
#455
b10 4
b10110 (
b10110 /
b10110 2
13
b1 <
1!
1.
#460
0!
0.
#465
1#
b1 1
b1 4
b10101 )
b10101 5
b10101 8
b10 <
1!
1.
#470
0!
0.
#475
b10 4
b10111 (
b10111 /
b10111 2
03
b1 <
1!
1.
#480
0!
0.
#485
0#
b0 1
b1 4
b10110 )
b10110 5
b10110 8
b10 <
b100100011010000000000 +
b100100011010000000000 6
1!
1.
#490
0!
0.
#495
b10 4
b11000 (
b11000 /
b11000 2
b1 <
1!
1.
#500
0!
0.
#505
b1 4
b10111 )
b10111 5
b10111 8
b10 <
1!
1.
#510
0!
0.
#515
b10 4
b11001 (
b11001 /
b11001 2
b1 <
1!
1.
#520
0!
0.
#525
b1 4
b11000 )
b11000 5
b11000 8
b10 <
1!
1.
#530
0!
0.
#535
b10 4
b11010 (
b11010 /
b11010 2
13
b1 <
1!
1.
#540
0!
0.
#545
1#
b1 1
b1 4
b11001 )
b11001 5
b11001 8
b10 <
1!
1.
#550
0!
0.
#555
b10 4
b11011 (
b11011 /
b11011 2
03
b1 <
1!
1.
#560
0!
0.
#565
0#
b0 1
b1 4
b11010 )
b11010 5
b11010 8
b10 <
b100100011010001000000 +
b100100011010001000000 6
1!
1.
#570
0!
0.
#575
b10 4
b11100 (
b11100 /
b11100 2
13
b1 <
1!
1.
#580
0!
0.
#585
1#
b1 1
b1 4
b11011 )
b11011 5
b11011 8
b10 <
1!
1.
#590
0!
0.
#595
b10 4
b11101 (
b11101 /
b11101 2
03
b1 <
1!
1.
#600
0!
0.
#605
0#
b0 1
b1 4
b11100 )
b11100 5
b11100 8
b10 <
b100100011010001010000 +
b100100011010001010000 6
1!
1.
#610
0!
0.
#615
b10 4
b11110 (
b11110 /
b11110 2
13
b1 <
1!
1.
#620
0!
0.
#625
1#
b1 1
b1 4
b11101 )
b11101 5
b11101 8
b10 <
1!
1.
#630
0!
0.
#635
b10 4
b11111 (
b11111 /
b11111 2
b1 <
1!
1.
#640
0!
0.
#645
b1 4
b11110 )
b11110 5
b11110 8
b10 <
b100100011010001010100 +
b100100011010001010100 6
1!
1.
#650
0!
0.
#655
b10 4
b100000 (
b100000 /
b100000 2
03
b1 <
1!
1.
#660
0!
0.
#665
0#
b0 1
b1 4
b11111 )
b11111 5
b11111 8
b10 <
b100100011010001010110 +
b100100011010001010110 6
1!
1.
#670
0!
0.
#675
b10 4
b100001 (
b100001 /
b100001 2
13
b1 <
1!
1.
#680
0!
0.
#685
1#
b1 1
b1 4
b100000 )
b100000 5
b100000 8
b10 <
1!
1.
#690
0!
0.
#695
b10 4
b100010 (
b100010 /
b100010 2
b1 <
1!
1.
#700
0!
0.
#705
b1 4
b100001 )
b100001 5
b100001 8
b10 <
b10000000000000000000000000000000 &
b10000000000000000000000000000000 9
1!
1.
#710
0!
0.
#715
b10 4
b100011 (
b100011 /
b100011 2
b1 <
1!
1.
#720
0!
0.
#725
b1 4
b100010 )
b100010 5
b100010 8
b10 <
b11000000000000000000000000000000 &
b11000000000000000000000000000000 9
1!
1.
#730
0!
0.
#735
b10 4
b100100 (
b100100 /
b100100 2
03
b1 <
1!
1.
#740
0!
0.
#745
0#
b0 1
b1 4
b100011 )
b100011 5
b100011 8
b10 <
b11100000000000000000000000000000 &
b11100000000000000000000000000000 9
1!
1.
#750
0!
0.
#755
b10 4
b100101 (
b100101 /
b100101 2
b1 <
1!
1.
#760
0!
0.
#765
b1 4
b100100 )
b100100 5
b100100 8
b10 <
1!
1.
#770
0!
0.
#775
b10 4
b100110 (
b100110 /
b100110 2
b1 <
1!
1.
#780
0!
0.
#785
b1 4
b100101 )
b100101 5
b100101 8
b10 <
1!
1.
#790
0!
0.
#795
b10 4
b100111 (
b100111 /
b100111 2
13
b1 <
1!
1.
#800
0!
0.
#805
1#
b1 1
b1 4
b100110 )
b100110 5
b100110 8
b10 <
1!
1.
#810
0!
0.
#815
b10 4
b101000 (
b101000 /
b101000 2
03
b1 <
1!
1.
#820
0!
0.
#825
0#
b0 1
b1 4
b100111 )
b100111 5
b100111 8
b10 <
b11100010000000000000000000000000 &
b11100010000000000000000000000000 9
1!
1.
#830
0!
0.
#835
b10 4
b101001 (
b101001 /
b101001 2
b1 <
1!
1.
#840
0!
0.
#845
b1 4
b101000 )
b101000 5
b101000 8
b10 <
1!
1.
#850
0!
0.
#855
b10 4
b101010 (
b101010 /
b101010 2
b1 <
1!
1.
#860
0!
0.
#865
b1 4
b101001 )
b101001 5
b101001 8
b10 <
1!
1.
#870
0!
0.
#875
b10 4
b101011 (
b101011 /
b101011 2
13
b1 <
1!
1.
#880
0!
0.
#885
1#
b1 1
b1 4
b101010 )
b101010 5
b101010 8
b10 <
1!
1.
#890
0!
0.
#895
b10 4
b101100 (
b101100 /
b101100 2
b1 <
1!
1.
#900
0!
0.
#905
b1 4
b101011 )
b101011 5
b101011 8
b10 <
b11100010001000000000000000000000 &
b11100010001000000000000000000000 9
1!
1.
#910
0!
0.
#915
b10 4
b101101 (
b101101 /
b101101 2
03
b1 <
1!
1.
#920
0!
0.
#925
0#
b0 1
b1 4
b101100 )
b101100 5
b101100 8
b10 <
b11100010001100000000000000000000 &
b11100010001100000000000000000000 9
1!
1.
#930
0!
0.
#935
b10 4
b101110 (
b101110 /
b101110 2
13
b1 <
1!
1.
#940
0!
0.
#945
1#
b1 1
b1 4
b101101 )
b101101 5
b101101 8
b10 <
1!
1.
#950
0!
0.
#955
b10 4
b101111 (
b101111 /
b101111 2
03
b1 <
1!
1.
#960
0!
0.
#965
0#
b0 1
b1 4
b101110 )
b101110 5
b101110 8
b10 <
b11100010001101000000000000000000 &
b11100010001101000000000000000000 9
1!
1.
#970
0!
0.
#975
b10 4
b110000 (
b110000 /
b110000 2
b1 <
1!
1.
#980
0!
0.
#985
b1 4
b101111 )
b101111 5
b101111 8
b10 <
1!
1.
#990
0!
0.
#995
b10 4
b110001 (
b110001 /
b110001 2
b1 <
1!
1.
#1000
0!
0.
#1005
b1 4
b110000 )
b110000 5
b110000 8
b10 <
1!
1.
#1010
0!
0.
#1015
b10 4
b110010 (
b110010 /
b110010 2
13
b1 <
1!
1.
#1020
0!
0.
#1025
1#
b1 1
b1 4
b110001 )
b110001 5
b110001 8
b10 <
1!
1.
#1030
0!
0.
#1035
b10 4
b110011 (
b110011 /
b110011 2
03
b1 <
1!
1.
#1040
0!
0.
#1045
0#
b0 1
b1 4
b110010 )
b110010 5
b110010 8
b10 <
b11100010001101000100000000000000 &
b11100010001101000100000000000000 9
1!
1.
#1050
0!
0.
#1055
b10 4
b110100 (
b110100 /
b110100 2
13
b1 <
1!
1.
#1060
0!
0.
#1065
1#
b1 1
b1 4
b110011 )
b110011 5
b110011 8
b10 <
1!
1.
#1070
0!
0.
#1075
b10 4
b110101 (
b110101 /
b110101 2
03
b1 <
1!
1.
#1080
0!
0.
#1085
0#
b0 1
b1 4
b110100 )
b110100 5
b110100 8
b10 <
b11100010001101000101000000000000 &
b11100010001101000101000000000000 9
1!
1.
#1090
0!
0.
#1095
b10 4
b110110 (
b110110 /
b110110 2
13
b1 <
1!
1.
#1100
0!
0.
#1105
1#
b1 1
b1 4
b110101 )
b110101 5
b110101 8
b10 <
1!
1.
#1110
0!
0.
#1115
b10 4
b110111 (
b110111 /
b110111 2
b1 <
1!
1.
#1120
0!
0.
#1125
b1 4
b110110 )
b110110 5
b110110 8
b10 <
b11100010001101000101010000000000 &
b11100010001101000101010000000000 9
1!
1.
#1130
0!
0.
#1135
b10 4
b111000 (
b111000 /
b111000 2
03
b1 <
1!
1.
#1140
0!
0.
#1145
0#
b0 1
b1 4
b110111 )
b110111 5
b110111 8
b10 <
b11100010001101000101011000000000 &
b11100010001101000101011000000000 9
1!
1.
#1150
0!
0.
#1155
b10 4
b111001 (
b111001 /
b111001 2
b1 <
1!
1.
#1160
0!
0.
#1165
b1 4
b111000 )
b111000 5
b111000 8
b10 <
1!
1.
#1170
0!
0.
#1175
b10 4
b111010 (
b111010 /
b111010 2
13
b1 <
1!
1.
#1180
0!
0.
#1185
1#
b1 1
b1 4
b111001 )
b111001 5
b111001 8
b10 <
1!
1.
#1190
0!
0.
#1195
b10 4
b111011 (
b111011 /
b111011 2
b1 <
1!
1.
#1200
0!
0.
#1205
b1 4
b111010 )
b111010 5
b111010 8
b10 <
b11100010001101000101011001000000 &
b11100010001101000101011001000000 9
1!
1.
#1210
0!
0.
#1215
b10 4
b111100 (
b111100 /
b111100 2
b1 <
1!
1.
#1220
0!
0.
#1225
b1 4
b111011 )
b111011 5
b111011 8
b10 <
b11100010001101000101011001100000 &
b11100010001101000101011001100000 9
1!
1.
#1230
0!
0.
#1235
b10 4
b111101 (
b111101 /
b111101 2
b1 <
1!
1.
#1240
0!
0.
#1245
b1 4
b111100 )
b111100 5
b111100 8
b10 <
b11100010001101000101011001110000 &
b11100010001101000101011001110000 9
1!
1.
#1250
0!
0.
#1255
b10 4
b111110 (
b111110 /
b111110 2
03
b1 <
1!
1.
#1260
0!
0.
#1265
0#
b0 1
b1 4
b111101 )
b111101 5
b111101 8
b10 <
b11100010001101000101011001111000 &
b11100010001101000101011001111000 9
1!
1.
#1270
0!
0.
#1275
b10 4
b111111 (
b111111 /
b111111 2
b1 <
1!
1.
#1280
0!
0.
#1285
b1 4
b111110 )
b111110 5
b111110 8
b10 <
1!
1.
#1290
0!
0.
#1295
b10 4
b1000000 (
b1000000 /
b1000000 2
b1 <
1!
1.
#1300
0!
0.
#1305
b1 4
b111111 )
b111111 5
b111111 8
b10 <
1!
1.
#1310
0!
0.
#1315
b10 4
b1000001 (
b1000001 /
b1000001 2
x3
b1 <
1!
1.
#1320
0!
0.
#1325
x#
b0x 1
b0 4
b1000000 )
b1000000 5
b1000000 8
b10 <
1!
1.
#1330
0!
0.
#1335
b0 &
b0 9
b0 +
b0 6
b0 *
b0 7
b0 )
b0 5
b0 8
b1 4
1'
b0 (
b0 /
b0 2
b0 <
1!
1.
#1340
0.
#1345
b10 4
b1 (
b1 /
b1 2
03
0'
1.
#1350
0!
0.
#1355
0#
b0 1
b1 4
b1 <
1!
1.
#1360
0!
0.
#1365
b10 4
b10 (
b10 /
b10 2
13
b1 )
b1 5
b1 8
b10 <
1!
1.
#1370
b0 )
b0 5
b0 8
1'
b0 (
b0 /
b0 2
03
1!
0.
1-
#1375
1.
#1380
0.
0-
#1385
b1 4
1.
#1390
0.
b1010110000100100001001000010010xxxxxxxxxxxxxxxxxxxxxxxxxxxxxxxx ,
b1010110000100100001001000010010xxxxxxxxxxxxxxxxxxxxxxxxxxxxxxxx 0
#1395
b10 4
b1 (
b1 /
b1 2
0'
1.
#1400
0!
0.
#1405
b1 4
b1 <
1!
1.
#1410
0!
0.
#1415
b10 4
b10 (
b10 /
b10 2
13
b1 )
b1 5
b1 8
b10 <
1!
1.
#1420
0!
0.
#1425
1#
b1 1
b1 4
b1 <
1!
1.
#1430
0!
0.
#1435
b10 4
b11 (
b11 /
b11 2
03
b10 )
b10 5
b10 8
b10 <
b1000000 *
b1000000 7
1!
1.
#1440
0!
0.
#1445
0#
b0 1
b1 4
b1 <
1!
1.
#1450
0!
0.
#1455
b10 4
b100 (
b100 /
b100 2
13
b11 )
b11 5
b11 8
b10 <
1!
1.
#1460
0!
0.
#1465
1#
b1 1
b1 4
b1 <
1!
1.
#1470
0!
0.
#1475
b10 4
b101 (
b101 /
b101 2
03
b100 )
b100 5
b100 8
b10 <
b1010000 *
b1010000 7
1!
1.
#1480
0!
0.
#1485
0#
b0 1
b1 4
b1 <
1!
1.
#1490
0!
0.
#1495
b10 4
b110 (
b110 /
b110 2
13
b101 )
b101 5
b101 8
b10 <
1!
1.
#1500
0!
0.
#1505
1#
b1 1
b1 4
b1 <
1!
1.
#1510
0!
0.
#1515
b10 4
b111 (
b111 /
b111 2
b110 )
b110 5
b110 8
b10 <
b1010100 *
b1010100 7
1!
1.
#1520
0!
0.
#1525
b1 4
b1 <
1!
1.
#1530
0!
0.
#1535
b10 4
b1000 (
b1000 /
b1000 2
03
b111 )
b111 5
b111 8
b10 <
b1010110 *
b1010110 7
1!
1.
#1540
0!
0.
#1545
0#
b0 1
b1 4
b1 <
1!
1.
#1550
0!
0.
#1555
b10 4
b1001 (
b1001 /
b1001 2
b1000 )
b1000 5
b1000 8
b10 <
1"
1!
1.
#1560
0!
0.
#1565
b1 4
b1 <
1!
1.
#1570
0!
0.
#1575
b10 4
b1010 (
b1010 /
b1010 2
b1001 )
b1001 5
b1001 8
b10 <
1!
1.
#1580
0!
0.
#1585
b1 4
b1 <
1!
1.
#1590
0!
0.
#1595
b10 4
b1011 (
b1011 /
b1011 2
b1010 )
b1010 5
b1010 8
b10 <
1!
1.
#1600
0!
0.
#1605
b1 4
b1 <
1!
1.
#1610
0!
0.
#1615
b10 4
b1100 (
b1100 /
b1100 2
13
b1011 )
b1011 5
b1011 8
b10 <
1!
1.
#1620
0!
0.
#1625
1#
b1 1
b1 4
b1 <
1!
1.
#1630
0!
0.
#1635
b10 4
b1101 (
b1101 /
b1101 2
03
b1100 )
b1100 5
b1100 8
b10 <
b100000000000000000000 +
b100000000000000000000 6
1!
1.
#1640
0!
0.
#1645
0#
b0 1
b1 4
b1 <
1!
1.
#1650
0!
0.
#1655
b10 4
b1110 (
b1110 /
b1110 2
b1101 )
b1101 5
b1101 8
b10 <
1!
1.
#1660
0!
0.
#1665
b1 4
b1 <
1!
1.
#1670
0!
0.
#1675
b10 4
b1111 (
b1111 /
b1111 2
13
b1110 )
b1110 5
b1110 8
b10 <
1!
1.
#1680
0!
0.
#1685
1#
b1 1
b1 4
b1 <
1!
1.
#1690
0!
0.
#1695
b10 4
b10000 (
b10000 /
b10000 2
03
b1111 )
b1111 5
b1111 8
b10 <
b100100000000000000000 +
b100100000000000000000 6
1!
1.
#1700
0!
0.
#1705
0#
b0 1
b1 4
b1 <
1!
1.
#1710
0!
0.
#1715
b10 4
b10001 (
b10001 /
b10001 2
b10000 )
b10000 5
b10000 8
b10 <
1!
1.
#1720
0!
0.
#1725
b1 4
b1 <
1!
1.
#1730
0!
0.
#1735
b10 4
b10010 (
b10010 /
b10010 2
b10001 )
b10001 5
b10001 8
b10 <
1!
1.
#1740
0!
0.
#1745
b1 4
b1 <
1!
1.
#1750
0!
0.
#1755
b10 4
b10011 (
b10011 /
b10011 2
b10010 )
b10010 5
b10010 8
b10 <
1!
1.
#1760
0!
0.
#1765
b1 4
b1 <
1!
1.
#1770
0!
0.
#1775
b10 4
b10100 (
b10100 /
b10100 2
13
b10011 )
b10011 5
b10011 8
b10 <
1!
1.
#1780
0!
0.
#1785
1#
b1 1
b1 4
b1 <
1!
1.
#1790
0!
0.
#1795
b10 4
b10101 (
b10101 /
b10101 2
03
b10100 )
b10100 5
b10100 8
b10 <
b100100001000000000000 +
b100100001000000000000 6
1!
1.
#1800
0!
0.
#1805
0#
b0 1
b1 4
b1 <
1!
1.
#1810
0!
0.
#1815
b10 4
b10110 (
b10110 /
b10110 2
b10101 )
b10101 5
b10101 8
b10 <
1!
1.
#1820
0!
0.
#1825
b1 4
b1 <
1!
1.
#1830
0!
0.
#1835
b10 4
b10111 (
b10111 /
b10111 2
13
b10110 )
b10110 5
b10110 8
b10 <
1!
1.
#1840
0!
0.
#1845
1#
b1 1
b1 4
b1 <
1!
1.
#1850
0!
0.
#1855
b10 4
b11000 (
b11000 /
b11000 2
03
b10111 )
b10111 5
b10111 8
b10 <
b100100001001000000000 +
b100100001001000000000 6
1!
1.
#1860
0!
0.
#1865
0#
b0 1
b1 4
b1 <
1!
1.
#1870
0!
0.
#1875
b10 4
b11001 (
b11001 /
b11001 2
b11000 )
b11000 5
b11000 8
b10 <
1!
1.
#1880
0!
0.
#1885
b1 4
b1 <
1!
1.
#1890
0!
0.
#1895
b10 4
b11010 (
b11010 /
b11010 2
b11001 )
b11001 5
b11001 8
b10 <
1!
1.
#1900
0!
0.
#1905
b1 4
b1 <
1!
1.
#1910
0!
0.
#1915
b10 4
b11011 (
b11011 /
b11011 2
b11010 )
b11010 5
b11010 8
b10 <
1!
1.
#1920
0!
0.
#1925
b1 4
b1 <
1!
1.
#1930
0!
0.
#1935
b10 4
b11100 (
b11100 /
b11100 2
13
b11011 )
b11011 5
b11011 8
b10 <
1!
1.
#1940
0!
0.
#1945
1#
b1 1
b1 4
b1 <
1!
1.
#1950
0!
0.
#1955
b10 4
b11101 (
b11101 /
b11101 2
03
b11100 )
b11100 5
b11100 8
b10 <
b100100001001000010000 +
b100100001001000010000 6
1!
1.
#1960
0!
0.
#1965
0#
b0 1
b1 4
b1 <
1!
1.
#1970
0!
0.
#1975
b10 4
b11110 (
b11110 /
b11110 2
b11101 )
b11101 5
b11101 8
b10 <
1!
1.
#1980
0!
0.
#1985
b1 4
b1 <
1!
1.
#1990
0!
0.
#1995
b10 4
b11111 (
b11111 /
b11111 2
13
b11110 )
b11110 5
b11110 8
b10 <
1!
1.
#2000
0!
0.
#2005
1#
b1 1
b1 4
b1 <
1!
1.
#2010
0!
0.
#2015
b10 4
b100000 (
b100000 /
b100000 2
03
b11111 )
b11111 5
b11111 8
b10 <
b100100001001000010010 +
b100100001001000010010 6
1!
1.
#2020
0!
0.
#2025
0#
b0 1
b1 4
b1 <
1!
1.
#2030
0!
0.
#2035
b10 4
b100001 (
b100001 /
b100001 2
x3
b100000 )
b100000 5
b100000 8
b10 <
1!
1.
#2040
0!
0.
#2045
x#
b0x 1
b1 4
b1 <
1!
1.
#2050
0!
0.
#2055
b10 4
b100010 (
b100010 /
b100010 2
b100001 )
b100001 5
b100001 8
b10 <
b10000000000000000000000000000000 %
b10000000000000000000000000000000 :
1$
1!
1.
#2060
0!
0.
#2065
b1 4
b1 <
1!
1.
#2070
0!
0.
#2075
b10 4
b100011 (
b100011 /
b100011 2
b100010 )
b100010 5
b100010 8
b10 <
0$
1!
1.
#2080
0!
0.
#2085
b1 4
b1 <
1!
1.
#2090
0!
0.
#2095
b10 4
b100100 (
b100100 /
b100100 2
b100011 )
b100011 5
b100011 8
b10 <
1!
1.
#2100
0!
0.
#2105
b1 4
b1 <
1!
1.
#2110
0!
0.
#2115
b10 4
b100101 (
b100101 /
b100101 2
b100100 )
b100100 5
b100100 8
b10 <
1!
1.
#2120
0!
0.
#2125
b1 4
b1 <
1!
1.
#2130
0!
0.
#2135
b10 4
b100110 (
b100110 /
b100110 2
b100101 )
b100101 5
b100101 8
b10 <
b10001000000000000000000000000000 %
b10001000000000000000000000000000 :
1$
1!
1.
#2140
0!
0.
#2145
b1 4
b1 <
1!
1.
#2150
0!
0.
#2155
b10 4
b100111 (
b100111 /
b100111 2
b100110 )
b100110 5
b100110 8
b10 <
0$
1!
1.
#2160
0!
0.
#2165
b1 4
b1 <
1!
1.
#2170
0!
0.
#2175
b10 4
b101000 (
b101000 /
b101000 2
b100111 )
b100111 5
b100111 8
b10 <
1!
1.
#2180
0!
0.
#2185
b1 4
b1 <
1!
1.
#2190
0!
0.
#2195
b10 4
b101001 (
b101001 /
b101001 2
b101000 )
b101000 5
b101000 8
b10 <
1!
1.
#2200
0!
0.
#2205
b1 4
b1 <
1!
1.
#2210
0!
0.
#2215
b10 4
b101010 (
b101010 /
b101010 2
b101001 )
b101001 5
b101001 8
b10 <
b10001000100000000000000000000000 %
b10001000100000000000000000000000 :
1$
1!
1.
#2220
0!
0.
#2225
b1 4
b1 <
1!
1.
#2230
0!
0.
#2235
b10 4
b101011 (
b101011 /
b101011 2
b101010 )
b101010 5
b101010 8
b10 <
0$
1!
1.
#2240
0!
0.
#2245
b1 4
b1 <
1!
1.
#2250
0!
0.
#2255
b10 4
b101100 (
b101100 /
b101100 2
b101011 )
b101011 5
b101011 8
b10 <
1!
1.
#2260
0!
0.
#2265
b1 4
b1 <
1!
1.
#2270
0!
0.
#2275
b10 4
b101101 (
b101101 /
b101101 2
b101100 )
b101100 5
b101100 8
b10 <
1!
1.
#2280
0!
0.
#2285
b1 4
b1 <
1!
1.
#2290
0!
0.
#2295
b10 4
b101110 (
b101110 /
b101110 2
b101101 )
b101101 5
b101101 8
b10 <
b10001000100010000000000000000000 %
b10001000100010000000000000000000 :
1$
1!
1.
#2300
0!
0.
#2305
b1 4
b1 <
1!
1.
#2310
0!
0.
#2315
b10 4
b101111 (
b101111 /
b101111 2
b101110 )
b101110 5
b101110 8
b10 <
0$
1!
1.
#2320
0!
0.
#2325
b1 4
b1 <
1!
1.
#2330
0!
0.
#2335
b10 4
b110000 (
b110000 /
b110000 2
b101111 )
b101111 5
b101111 8
b10 <
1!
1.
#2340
0!
0.
#2345
b1 4
b1 <
1!
1.
#2350
0!
0.
#2355
b10 4
b110001 (
b110001 /
b110001 2
b110000 )
b110000 5
b110000 8
b10 <
1!
1.
#2360
0!
0.
#2365
b1 4
b1 <
1!
1.
#2370
0!
0.
#2375
b10 4
b110010 (
b110010 /
b110010 2
b110001 )
b110001 5
b110001 8
b10 <
b10001000100010001000000000000000 %
b10001000100010001000000000000000 :
1$
1!
1.
#2380
0!
0.
#2385
b1 4
b1 <
1!
1.
#2390
0!
0.
#2395
b10 4
b110011 (
b110011 /
b110011 2
b110010 )
b110010 5
b110010 8
b10 <
0$
1!
1.
#2400
0!
0.
#2405
b1 4
b1 <
1!
1.
#2410
0!
0.
#2415
b10 4
b110100 (
b110100 /
b110100 2
b110011 )
b110011 5
b110011 8
b10 <
1!
1.
#2420
0!
0.
#2425
b1 4
b1 <
1!
1.
#2430
0!
0.
#2435
b10 4
b110101 (
b110101 /
b110101 2
b110100 )
b110100 5
b110100 8
b10 <
1!
1.
#2440
0!
0.
#2445
b1 4
b1 <
1!
1.
#2450
0!
0.
#2455
b10 4
b110110 (
b110110 /
b110110 2
b110101 )
b110101 5
b110101 8
b10 <
b10001000100010001000100000000000 %
b10001000100010001000100000000000 :
1$
1!
1.
#2460
0!
0.
#2465
b1 4
b1 <
1!
1.
#2470
0!
0.
#2475
b10 4
b110111 (
b110111 /
b110111 2
b110110 )
b110110 5
b110110 8
b10 <
0$
1!
1.
#2480
0!
0.
#2485
b1 4
b1 <
1!
1.
#2490
0!
0.
#2495
b10 4
b111000 (
b111000 /
b111000 2
b110111 )
b110111 5
b110111 8
b10 <
1!
1.
#2500
0!
0.
#2505
b1 4
b1 <
1!
1.
#2510
0!
0.
#2515
b10 4
b111001 (
b111001 /
b111001 2
b111000 )
b111000 5
b111000 8
b10 <
1!
1.
#2520
0!
0.
#2525
b1 4
b1 <
1!
1.
#2530
0!
0.
#2535
b10 4
b111010 (
b111010 /
b111010 2
b111001 )
b111001 5
b111001 8
b10 <
b10001000100010001000100010000000 %
b10001000100010001000100010000000 :
1$
1!
1.
#2540
0!
0.
#2545
b1 4
b1 <
1!
1.
#2550
0!
0.
#2555
b10 4
b111011 (
b111011 /
b111011 2
b111010 )
b111010 5
b111010 8
b10 <
0$
1!
1.
#2560
0!
0.
#2565
b1 4
b1 <
1!
1.
#2570
0!
0.
#2575
b10 4
b111100 (
b111100 /
b111100 2
b111011 )
b111011 5
b111011 8
b10 <
1!
1.
#2580
0!
0.
#2585
b1 4
b1 <
1!
1.
#2590
0!
0.
#2595
b10 4
b111101 (
b111101 /
b111101 2
b111100 )
b111100 5
b111100 8
b10 <
1!
1.
#2600
0!
0.
#2605
b1 4
b1 <
1!
1.
#2610
0!
0.
